…
### Create dataframe

``` r
df_2 = tibble(
  x = rnorm(500),
  y = rnorm(500),
  logical_vec = x + y > 1,
  num_log= as.numeric(logical_vec),
  fac_vec= as.factor(logical_vec)
)

df_2
```

    ## # A tibble: 500 x 5
    ##         x       y logical_vec num_log fac_vec
    ##     <dbl>   <dbl> <lgl>         <dbl> <fct>  
    ##  1  0.194 -0.0588 FALSE             0 FALSE  
    ##  2  0.394 -0.271  FALSE             0 FALSE  
    ##  3 -0.386  1.67   TRUE              1 TRUE   
    ##  4 -2.02   0.234  FALSE             0 FALSE  
    ##  5 -0.642  0.508  FALSE             0 FALSE  
    ##  6  0.978  0.976  TRUE              1 TRUE   
    ##  7  0.285  0.389  FALSE             0 FALSE  
    ##  8 -0.925  1.45   FALSE             0 FALSE  
    ##  9  0.629  0.290  FALSE             0 FALSE  
    ## 10 -2.47   0.969  FALSE             0 FALSE  
    ## # ... with 490 more rows
